{ 
    
    "road_asphalt90": [
        
        {
            "density": 2, "friction": 0, "bounce": 0, "isSensor":true, 
            "filter": { "categoryBits": 1, "maskBits": 65535 },
            "shape": [   0, 128  ,  0, 0  ,  128, 0  ,  128, 128  ]
        }
    ]
    , 
    "road_asphalt89": [
        
        {
            "density": 2, "friction": 0, "bounce": 0, "isSensor":true, 
            "filter": { "categoryBits": 1, "maskBits": 65535 },
            "shape": [   0, 128  ,  0, 0  ,  128, 0  ,  128, 128  ]
        }
    ]
    , 
    "road_asphalt88": [
        
        {
            "density": 2, "friction": 0, "bounce": 0, "isSensor":true, 
            "filter": { "categoryBits": 1, "maskBits": 65535 },
            "shape": [   0, 128  ,  0, 0  ,  128, 0  ,  128, 128  ]
        }
    ]
    , 
    "road_asphalt87": [
        
        {
            "density": 2, "friction": 0, "bounce": 0, "isSensor":true, 
            "filter": { "categoryBits": 1, "maskBits": 65535 },
            "shape": [   0, 128  ,  0, 0  ,  128, 0  ,  128, 128  ]
        }
    ]
    , 
    "road_asphalt86": [
        
        {
            "density": 2, "friction": 0, "bounce": 0, "isSensor":true, 
            "filter": { "categoryBits": 1, "maskBits": 65535 },
            "shape": [   0, 128  ,  0, 0  ,  128, 0  ,  128, 128  ]
        }
    ]
    , 
    "road_asphalt85": [
        
        {
            "density": 2, "friction": 0, "bounce": 0, "isSensor":true, 
            "filter": { "categoryBits": 1, "maskBits": 65535 },
            "shape": [   0, 128  ,  0, 0  ,  128, 0  ,  128, 128  ]
        }
    ]
    , 
    "road_asphalt84": [
        
        {
            "density": 2, "friction": 0, "bounce": 0, "isSensor":true, 
            "filter": { "categoryBits": 1, "maskBits": 65535 },
            "shape": [   0, 128  ,  0, 0  ,  128, 0  ,  128, 128  ]
        }
    ]
    , 
    "road_asphalt83": [
        
        {
            "density": 2, "friction": 0, "bounce": 0, "isSensor":true, 
            "filter": { "categoryBits": 1, "maskBits": 65535 },
            "shape": [   0, 128  ,  0, 0  ,  128, 0  ,  128, 128  ]
        }
    ]
    , 
    "road_asphalt71": [
        
        {
            "density": 2, "friction": 0, "bounce": 0, "isSensor":true, 
            "filter": { "categoryBits": 1, "maskBits": 65535 },
            "shape": [   0, 128  ,  0, 0  ,  128, 0  ,  128, 128  ]
        }
    ]
    , 
    "road_asphalt70": [
        
        {
            "density": 2, "friction": 0, "bounce": 0, "isSensor":true, 
            "filter": { "categoryBits": 1, "maskBits": 65535 },
            "shape": [   0, 128  ,  0, 0  ,  128, 0  ,  128, 128  ]
        }
    ]
    , 
    "road_asphalt69": [
        
        {
            "density": 2, "friction": 0, "bounce": 0, "isSensor":true, 
            "filter": { "categoryBits": 1, "maskBits": 65535 },
            "shape": [   0, 128  ,  0, 0  ,  128, 0  ,  128, 128  ]
        }
    ]
    , 
    "road_asphalt65": [
        
        {
            "density": 2, "friction": 0, "bounce": 0, "isSensor":true, 
            "filter": { "categoryBits": 1, "maskBits": 65535 },
            "shape": [   103, 0  ,  95, 18  ,  83, 37  ,  57, 66  ,  28, 87  ,  0, 102  ,  0, 0  ]
        }
    ]
    , 
    "road_asphalt64": [
        
        {
            "density": 2, "friction": 0, "bounce": 0, "isSensor":true, 
            "filter": { "categoryBits": 1, "maskBits": 65535 },
            "shape": [   128, 0  ,  128, 102  ,  79, 118  ,  45, 124  ,  0, 128  ,  0, 0  ]
        }
    ]
    , 
    "road_asphalt63": [
        
        {
            "density": 2, "friction": 0, "bounce": 0, "isSensor":true, 
            "filter": { "categoryBits": 1, "maskBits": 65535 },
            "shape": [   128, 128  ,  103, 128  ,  58, 122  ,  29, 115  ,  0, 104  ,  0, 0  ,  128, 0  ]
        }
    ]
    , 
    "road_asphalt62": [
        
        {
            "density": 2, "friction": 0, "bounce": 0, "isSensor":true, 
            "filter": { "categoryBits": 1, "maskBits": 65535 },
            "shape": [   128, 103  ,  110, 95  ,  91, 83  ,  61, 56  ,  43, 31  ,  26, 0  ,  128, 0  ]
        }
    ]
    , 
    "road_asphalt47": [
        
        {
            "density": 2, "friction": 0, "bounce": 0, "isSensor":true, 
            "filter": { "categoryBits": 1, "maskBits": 65535 },
            "shape": [   128, 0  ,  127, 35  ,  122, 70  ,  115, 99  ,  104, 128  ,  0, 128  ,  0, 0  ]
        }
    ]
    , 
    "road_asphalt46": [
        
        {
            "density": 2, "friction": 0, "bounce": 0, "isSensor":true, 
            "filter": { "categoryBits": 1, "maskBits": 65535 },
            "shape": [   0, 128  ,  0, 0  ,  128, 0  ,  128, 128  ]
        }
    ]
    , 
    "road_asphalt45": [
        
        {
            "density": 2, "friction": 0, "bounce": 0, "isSensor":true, 
            "filter": { "categoryBits": 1, "maskBits": 65535 },
            "shape": [   0, 128  ,  0, 0  ,  128, 0  ,  128, 128  ]
        }
    ]
    , 
    "road_asphalt44": [
        
        {
            "density": 2, "friction": 0, "bounce": 0, "isSensor":true, 
            "filter": { "categoryBits": 1, "maskBits": 65535 },
            "shape": [   128, 128  ,  26, 128  ,  14, 94  ,  9, 74  ,  3, 38  ,  0, 0  ,  128, 0  ]
        }
    ]
    , 
    "road_asphalt40": [
        
        {
            "density": 2, "friction": 0, "bounce": 0, "isSensor":true, 
            "filter": { "categoryBits": 1, "maskBits": 65535 },
            "shape": [   0, 128  ,  0, 0  ,  128, 0  ,  128, 128  ]
        }
    ]
    , 
    "road_asphalt29": [
        
        {
            "density": 2, "friction": 0, "bounce": 0, "isSensor":true, 
            "filter": { "categoryBits": 1, "maskBits": 65535 },
            "shape": [   0, 0  ,  102, 0  ,  119, 54  ,  124, 83  ,  128, 128  ,  0, 128  ]
        }
    ]
    , 
    "road_asphalt28": [
        
        {
            "density": 2, "friction": 0, "bounce": 0, "isSensor":true, 
            "filter": { "categoryBits": 1, "maskBits": 65535 },
            "shape": [   0, 128  ,  0, 0  ,  128, 0  ,  128, 128  ]
        }
    ]
    , 
    "road_asphalt27": [
        
        {
            "density": 2, "friction": 0, "bounce": 0, "isSensor":true, 
            "filter": { "categoryBits": 1, "maskBits": 65535 },
            "shape": [   0, 128  ,  0, 0  ,  128, 0  ,  128, 128  ]
        }
    ]
    , 
    "road_asphalt26": [
        
        {
            "density": 2, "friction": 0, "bounce": 0, "isSensor":true, 
            "filter": { "categoryBits": 1, "maskBits": 65535 },
            "shape": [   0, 128  ,  1, 94  ,  6, 58  ,  14, 26  ,  24, 1  ,  128, 0  ,  128, 128  ]
        }
    ]
    , 
    "road_asphalt23": [
        
        {
            "density": 2, "friction": 0, "bounce": 0, "isSensor":true, 
            "filter": { "categoryBits": 1, "maskBits": 65535 },
            "shape": [   0, 128  ,  0, 0  ,  128, 0  ,  128, 128  ]
        }
    ]
    , 
    "road_asphalt22": [
        
        {
            "density": 2, "friction": 0, "bounce": 0, "isSensor":true, 
            "filter": { "categoryBits": 1, "maskBits": 65535 },
            "shape": [   0, 128  ,  0, 0  ,  128, 0  ,  128, 128  ]
        }
    ]
    , 
    "road_asphalt21": [
        
        {
            "density": 2, "friction": 0, "bounce": 0, "isSensor":true, 
            "filter": { "categoryBits": 1, "maskBits": 65535 },
            "shape": [   0, 128  ,  0, 0  ,  128, 0  ,  128, 128  ]
        }
    ]
    , 
    "road_asphalt11": [
        
        {
            "density": 2, "friction": 0, "bounce": 0, "isSensor":true, 
            "filter": { "categoryBits": 1, "maskBits": 65535 },
            "shape": [   0, 25  ,  16, 32  ,  34, 43  ,  65, 70  ,  85, 97  ,  102, 128  ,  0, 128  ]
        }
    ]
    , 
    "road_asphalt10": [
        
        {
            "density": 2, "friction": 0, "bounce": 0, "isSensor":true, 
            "filter": { "categoryBits": 1, "maskBits": 65535 },
            "shape": [   0, 0  ,  34, 1  ,  64, 5  ,  95, 12  ,  128, 24  ,  128, 128  ,  0, 128  ]
        }
    ]
    , 
    "road_asphalt09": [
        
        {
            "density": 2, "friction": 0, "bounce": 0, "isSensor":true, 
            "filter": { "categoryBits": 1, "maskBits": 65535 },
            "shape": [   0, 128  ,  0, 26  ,  31, 15  ,  64, 7  ,  128, 0  ,  128, 128  ]
        }
    ]
    , 
    "road_asphalt08": [
        
        {
            "density": 2, "friction": 0, "bounce": 0, "isSensor":true, 
            "filter": { "categoryBits": 1, "maskBits": 65535 },
            "shape": [   25, 128  ,  33, 110  ,  43, 94  ,  71, 62  ,  94, 45  ,  128, 26  ,  128, 128  ]
        }
    ]
    , 
    "road_asphalt04": [
        
        {
            "density": 2, "friction": 0, "bounce": 0, "isSensor":true, 
            "filter": { "categoryBits": 1, "maskBits": 65535 },
            "shape": [   0, 128  ,  0, 0  ,  128, 0  ,  128, 128  ]
        }
    ]
}
